{
  "paths": {
    "sugar-2.0.4.min": "SuiteScripts/Clearion3rdPartyLibraries/libs/sugar-2.0.4.min",
    "buckets-1.98.2.min": "SuiteScripts/Clearion3rdPartyLibraries/libs/buckets-1.98.2.min",
    "underscore": "SuiteScripts/Clearion3rdPartyLibraries/libs/underscore-min.js",
    "moment": "SuiteScripts/Clearion3rdPartyLibraries/libs/moment.min.js",
    "clearionUtils": "SuiteScripts/Clearion3rdPartyLibraries/Clearion3rdPartyLibraries_Utils.js",
    "clearionDealerConfClasses": "SuiteScripts/ClearionDealerConf/src/ClearionDealerConf_Classes"
  }
}
